<svg xmlns="http://www.w3.org/2000/svg" width="17" height="17.001" viewBox="0 0 17 17.001">
  <g id="Group_5" data-name="Group 5" transform="translate(-370.876 -2805.433)">
    <path id="Path_2" data-name="Path 2" d="M374.985,2813.45l2.063,2.064,5.073-5.073" transform="translate(0.993 0.957)" fill="none" stroke="#c6af76" stroke-linecap="round" stroke-miterlimit="10" stroke-width="1"/>
    <g id="Group_5-2" data-name="Group 5" transform="translate(371.376 2805.933)">
      <path id="Path_3" data-name="Path 3" d="M379.377,2821.934a8,8,0,1,1,8-8A8,8,0,0,1,379.377,2821.934Z" transform="translate(-371.376 -2805.933)" fill="none" stroke="#c6af76" stroke-miterlimit="10" stroke-width="1"/>
    </g>
  </g>
</svg>
