<svg xmlns="http://www.w3.org/2000/svg" width="17" height="17" viewBox="0 0 17 17">
  <g id="Group_20" data-name="Group 20" transform="translate(-808.468 -1497.682)">
    <path id="Path_660" data-name="Path 660" d="M816.344,1509.978l1.732,1.733,4.258-4.258" transform="translate(-2.371 -3.399)" fill="none" stroke="#c6af76" stroke-linecap="round" stroke-miterlimit="10" stroke-width="1"/>
    <path id="Path_661" data-name="Path 661" d="M816.968,1514.182a8,8,0,1,1,8-8A8,8,0,0,1,816.968,1514.182Z" transform="translate(0)" fill="none" stroke="gray" stroke-miterlimit="10" stroke-width="1"/>
  </g>
</svg>
