<svg width="48" height="48" viewBox="0 0 48 48" fill="none" xmlns="http://www.w3.org/2000/svg">
<g clip-path="url(#clip0)">
<path d="M47.7461 34.3256L44.7307 31.3102C44.3917 30.9715 43.8426 30.9715 43.5038 31.3102L42.6756 32.1384C39.4902 29.2014 32.5918 24.1331 25.6012 27.3433C22.8648 28.5999 20.5894 29.3755 18.639 29.7103C18.532 29.7199 18.3426 29.7421 18.1051 29.792C17.3172 29.8974 16.5819 29.9291 15.8939 29.8841C13.6531 29.7375 11.8203 28.801 9.95137 26.8477C9.62015 26.5014 9.07106 26.4891 8.72484 26.8206C8.37862 27.1517 8.36653 27.7009 8.69774 28.0471C10.7955 30.2397 12.9767 31.3721 15.5435 31.5971C15.335 32.0463 15.2016 32.6493 15.3206 33.426C15.4607 34.3394 15.9472 35.0633 16.7279 35.5191C17.4522 35.942 18.3582 36.0984 19.3026 36.0984C21.4306 36.0983 23.7527 35.3041 24.6228 34.9747C25.0708 34.805 25.2966 34.3043 25.127 33.8562C24.9573 33.4082 24.4561 33.1829 24.0086 33.352C21.3112 34.3731 18.677 34.648 17.6025 34.0208C17.2716 33.8276 17.0967 33.5631 17.0354 33.1631C16.9677 32.7221 17.0351 32.3823 17.2414 32.1248C17.5216 31.775 18.0288 31.5893 18.4143 31.5012C18.5687 31.4796 18.7244 31.4562 18.8823 31.4295C18.908 31.4261 18.9331 31.4216 18.9579 31.416C21.0616 31.0503 23.472 30.2303 26.325 28.92C32.3527 26.1525 38.526 30.684 41.4478 33.3661L39.2518 35.5621L35.098 39.7153C30.9557 36.6756 26.4884 37.7414 22.525 38.6875C19.9162 39.3101 17.4518 39.8984 15.4736 39.2041C11.1245 37.677 5.77021 30.2711 3.67012 27.158C3.42534 26.7952 3.33778 26.3591 3.42365 25.9299C3.50981 25.4993 3.75928 25.129 4.12603 24.8874C4.8194 24.4307 5.74237 24.567 6.27318 25.2044C6.57993 25.5727 7.12678 25.6226 7.49493 25.3158C7.86309 25.0093 7.91296 24.4623 7.60631 24.094C6.5099 22.7776 4.60359 22.4958 3.17165 23.4384C2.41462 23.9372 1.89993 24.7011 1.72228 25.5895C1.54481 26.4767 1.72575 27.3783 2.23162 28.1281C4.96031 32.173 10.2343 39.2033 14.8987 40.8411C17.3585 41.7045 20.0635 41.0588 22.9276 40.375C26.6066 39.4967 30.4022 38.5925 33.852 40.9615L33.4032 41.4102C33.2406 41.573 33.1492 41.7936 33.1492 42.0237C33.1492 42.2539 33.2407 42.4744 33.4034 42.6372L36.419 45.6527C36.5883 45.822 36.8104 45.9067 37.0324 45.9067C37.2543 45.9067 37.4764 45.822 37.6459 45.6527L40.2172 43.0813C40.5561 42.7424 40.5561 42.1932 40.2172 41.8545C39.8783 41.5159 39.3292 41.5159 38.9904 41.8545L37.0324 43.8127L35.2435 42.0239L41.374 35.8936L43.3047 33.9632C43.3056 33.9624 43.3062 33.9614 43.3071 33.9608L44.1171 33.1508L45.9058 34.9395L41.439 39.4061C41.1002 39.745 41.1002 40.2942 41.439 40.633C41.7779 40.9716 42.3271 40.9716 42.6658 40.633L47.7459 35.5528C48.0847 35.2137 48.0847 34.6645 47.7461 34.3256Z" fill="black"/>
<path d="M13.6565 5.10357C13.4917 4.91138 13.2511 4.80066 12.9979 4.80066C12.7447 4.80066 12.504 4.91138 12.3393 5.10357C12.3026 5.14632 11.4282 6.1711 10.4019 7.78247C10.1445 8.18663 10.2635 8.72278 10.6676 8.98013C11.0716 9.23738 11.6078 9.11832 11.8652 8.71444C12.2874 8.05144 12.6847 7.49166 12.9974 7.07241C14.3371 8.87166 17.2432 13.2713 17.1102 17.4222C17.0233 20.1341 14.9823 21.3479 12.9979 21.3479C11.0135 21.3479 8.97234 20.1341 8.88553 17.4222C8.83256 15.7699 9.25856 13.9069 10.1513 11.8853C10.3448 11.4471 10.1465 10.9348 9.70828 10.7413C9.27 10.5474 8.75784 10.7461 8.56425 11.1843C7.56553 13.4458 7.09012 15.5633 7.15143 17.4777C7.20693 19.2024 7.86947 20.6566 9.06759 21.683C10.1216 22.5858 11.5175 23.0829 12.9981 23.0829C14.4786 23.0829 15.8745 22.5858 16.9284 21.683C18.1266 20.6566 18.7892 19.2024 18.8444 17.4778C19.0373 11.4529 13.8762 5.35988 13.6565 5.10357Z" fill="black"/>
<path d="M23.9384 18.9568H23.7874C23.3936 18.9568 23.0734 18.6364 23.0734 18.2428C23.0734 17.8492 23.3936 17.5288 23.7874 17.5288H23.9384C25.2888 17.5288 26.3874 16.4302 26.3874 15.0798C26.3874 13.7295 25.2888 12.6309 23.9384 12.6309H23.7874C23.3936 12.6309 23.0734 12.3106 23.0734 11.9169C23.0734 11.4378 22.685 11.0494 22.2059 11.0494C21.7268 11.0494 21.3384 11.4378 21.3384 11.9169C21.3384 13.2673 22.437 14.3658 23.7874 14.3658H23.9384C24.332 14.3658 24.6524 14.6862 24.6524 15.0798C24.6524 15.4734 24.3321 15.7938 23.9384 15.7938H23.7874C22.437 15.7938 21.3384 16.8924 21.3384 18.2428C21.3384 19.5932 22.437 20.6917 23.7874 20.6917H23.9384C24.332 20.6917 24.6524 21.0121 24.6524 21.4057C24.6524 21.8849 25.0407 22.2732 25.5199 22.2732C25.999 22.2732 26.3874 21.8849 26.3874 21.4057C26.3874 20.0553 25.2888 18.9568 23.9384 18.9568Z" fill="black"/>
<path d="M2.59997 10.0008H2.44894C2.05519 10.0008 1.73494 9.68051 1.73494 9.28685C1.73494 8.89319 2.05519 8.57285 2.44894 8.57285H2.59997C3.95034 8.57285 5.04891 7.47429 5.04891 6.12391C5.04891 4.77354 3.95034 3.67497 2.59997 3.67497H2.44894C2.05519 3.67497 1.73494 3.35463 1.73494 2.96097C1.73494 2.48182 1.34653 2.09351 0.867469 2.09351C0.388406 2.09351 0 2.4821 0 2.96116C0 4.31154 1.09856 5.4101 2.44894 5.4101H2.59997C2.99372 5.4101 3.31397 5.73044 3.31397 6.1241C3.31397 6.51766 2.99372 6.8381 2.59997 6.8381H2.44894C1.09856 6.83801 0 7.93657 0 9.28694C0 10.6373 1.09856 11.7359 2.44894 11.7359H2.59997V11.7358C2.99372 11.7358 3.31397 12.0561 3.31397 12.4498C3.31397 12.9289 3.70238 13.3173 4.18144 13.3173C4.6605 13.3173 5.04891 12.9289 5.04891 12.4498C5.04891 11.0994 3.95034 10.0008 2.59997 10.0008Z" fill="black"/>
</g>
<defs>
<clipPath id="clip0">
<rect width="48" height="48" fill="white"/>
</clipPath>
</defs>
</svg>
